V34 :0x34 integrator
16 riemann_cuda.cuf S624 0
06/04/2022  14:26:50
enduse
D 58 23 10 1 11 14 0 0 1 0 0
 0 13 11 11 14 14
S 624 24 0 0 0 6 1 0 5013 10005 0 A 0 0 0 0 B 0 1 0 0 0 0 0 0 0 0 0 0 0 0 0 0 0 0 0 0 0 1 0 0 0 0 0 0 integrator
S 625 23 5 0 4 0 628 624 5024 0 0 A 0 0 0 0 B 0 4 0 0 0 0 0 0 0 0 0 0 0 0 0 0 0 0 0 0 0 0 0 0 0 0 0 0 mediantrapezoid
S 626 7 3 0 0 58 1 625 5040 808204 3000 A 0 0 0 0 B 0 4 0 0 0 0 0 0 0 0 0 0 0 0 0 0 0 0 0 0 0 0 0 0 0 0 0 0 a
S 627 6 1 0 0 6 1 625 5042 808004 3000 A 0 0 0 0 B 0 4 0 0 0 0 0 0 0 0 0 0 0 0 0 0 0 0 0 0 0 0 0 0 0 0 0 0 n
S 628 14 5 0 4 0 1 625 5024 200 400000 A 0 0 0 0 B 0 4 0 0 0 0 0 2 2 0 0 0 0 0 0 0 0 0 0 0 0 4 0 624 0 0 0 0 mediantrapezoid mediantrapezoid 
F 628 2 626 630
S 629 6 1 0 0 7 1 625 5044 40808006 3000 A 0 0 0 0 B 0 6 0 0 0 0 0 0 0 0 0 0 0 0 0 0 0 0 0 0 0 0 0 0 0 0 0 0 z_e_397
S 630 6 3 0 0 6 1 625 5052 800004 7000 A 0 0 0 0 B 0 4 0 0 0 0 0 0 0 0 0 0 0 0 0 0 0 0 0 0 0 0 0 0 0 0 0 0 _V_n
A 12 1 0 0 0 6 627 0 0 0 0 0 0 0 0 0 0 0 0 0 0 0
A 13 7 0 0 0 7 12 0 0 0 0 0 0 0 0 0 0 0 0 0 0 0
A 14 1 0 0 0 7 629 0 0 0 0 0 0 0 0 0 0 0 0 0 0 0
Z
Z
